{
  "languageModel": {
    "intents": [
      {
        "name": "AMAZON.CancelIntent",
        "samples": []
      },
      {
        "name": "AMAZON.HelpIntent",
        "samples": []
      },
      {
        "name": "AMAZON.StopIntent",
        "samples": []
      },
      {
        "name": "PlanMyTrip",
        "samples": [
          "Help me plan my trip",
          "plan my trip",
          "I wish to visit {toCity} from {fromCity} on {travelDate}"
        ],
        "slots": [
          {
            "name": "fromCity",
            "type": "AMAZON.US_CITY",
            "samples": [
              "from {fromCity}",
              "{fromCity}",
              "I will be traveling from {fromCity}"
            ]
          },
          {
            "name": "toCity",
            "type": "AMAZON.US_CITY",
            "samples": [
              "I wish to visit {toCity}",
              "{toCity}",
              "to {toCity}"
            ]
          },
          {
            "name": "travelDate",
            "type": "AMAZON.DATE",
            "samples": [
              "{travelDate}",
              "I will be travelling on {travelDate}"
            ]
          }
        ]
      }
    ],
    "invocationName": "easy trip planner"
  },
  "prompts": [
    {
      "id": "Elicit.Intent-PlanMyTrip.IntentSlot-fromCity",
      "variations": [
        {
          "type": "PlainText",
          "value": "From where will you be travelling ?"
        }
      ]
    },
    {
      "id": "Elicit.Intent-PlanMyTrip.IntentSlot-toCity",
      "variations": [
        {
          "type": "PlainText",
          "value": "Where do you wish to travel ?"
        }
      ]
    },
    {
      "id": "Elicit.Intent-PlanMyTrip.IntentSlot-travelDate",
      "variations": [
        {
          "type": "PlainText",
          "value": "When will you be traveling ?"
        }
      ]
    }
  ],
  "dialog": {
    "intents": [
      {
        "name": "PlanMyTrip",
        "confirmationRequired": false,
        "prompts": {},
        "slots": [
          {
            "name": "fromCity",
            "type": "AMAZON.US_CITY",
            "elicitationRequired": true,
            "confirmationRequired": false,
            "prompts": {
              "elicitation": "Elicit.Intent-PlanMyTrip.IntentSlot-fromCity"
            }
          },
          {
            "name": "toCity",
            "type": "AMAZON.US_CITY",
            "elicitationRequired": true,
            "confirmationRequired": false,
            "prompts": {
              "elicitation": "Elicit.Intent-PlanMyTrip.IntentSlot-toCity"
            }
          },
          {
            "name": "travelDate",
            "type": "AMAZON.DATE",
            "elicitationRequired": true,
            "confirmationRequired": false,
            "prompts": {
              "elicitation": "Elicit.Intent-PlanMyTrip.IntentSlot-travelDate"
            }
          }
        ]
      }
    ]
  }
}